[
  "name",
  "geo_position",
  "text_location",
  "postal_code",
  "hospital",
  "hospitalized_start",
  "hospitalized",
  "need_hospital_help",
  "health_care_quality",
  "agreement",
  "symptoms",
  "diagnosis",
  "age",
  "group_risk",
  "potential_contacts",
  "phone_number",
  "symptoms_recommendation"
]